<?xml version="1.0" encoding="utf-8"?>
<!-- Generator: Adobe Illustrator 18.1.0, SVG Export Plug-In . SVG Version: 6.00 Build 0)  -->
<!DOCTYPE svg PUBLIC "-//W3C//DTD SVG 1.1//EN" "http://www.w3.org/Graphics/SVG/1.1/DTD/svg11.dtd">
<svg version="1.1" id="Layer_1" xmlns="http://www.w3.org/2000/svg" xmlns:xlink="http://www.w3.org/1999/xlink" x="0px" y="0px"
	 viewBox="564.9 111.1 244.1 248.4" enable-background="new 564.9 111.1 244.1 248.4" xml:space="preserve">
<g>
	<path id="XMLID_1_" fill="#CCCCCC" d="M801.8,311.4c1.3-17.1,2.1-25.9,2.1-25.9c5.9-26.1-3-43.8-3-43.8
		c-8.7-28.6-14.2-35.5-28.3-59.8s-33.3-45.4-33.3-45.4c-24.5-24.6-34.6-20.8-34.6-20.8s-9.1-5.8-38.1,13.2c0,0-23.2,16.7-42,37.6
		s-25.6,26.5-40,52.7c0,0-12.4,15.4-12,42.2c0,0-1.1,8.8-3.3,25.8s-1.5,45.5,1.7,49.5c0,0-6.4-27.9,4.7-50
		c11.2-22,23.3-35.9,30.7-46.3s38.4-41.4,38.4-41.4s25.5-30.8,34.9-35.8s20.5-3.9,20.5-3.9s11.1,1.2,19.3,8s26.7,42.2,26.7,42.2
		s23.8,36.7,29,48.5c5.2,11.8,14.1,27.8,20.5,51.6c6.4,23.9-5.7,49.9-5.7,49.9C793.9,356.2,800.5,328.5,801.8,311.4z"/>
</g>
</svg>
