<?xml version="1.0" encoding="utf-8"?>
<!-- Generator: Adobe Illustrator 18.0.0, SVG Export Plug-In . SVG Version: 6.00 Build 0)  -->
<!DOCTYPE svg PUBLIC "-//W3C//DTD SVG 1.1//EN" "http://www.w3.org/Graphics/SVG/1.1/DTD/svg11.dtd">
<svg version="1.1" xmlns="http://www.w3.org/2000/svg" xmlns:xlink="http://www.w3.org/1999/xlink" x="0px" y="0px"
	 viewBox="0 0 2000 504" enable-background="new 0 0 2000 504" xml:space="preserve">

	<path fill="#FFFFFF" class="footbook-logo" d="M665.9,257c-11.6,24-36.1,40.6-64.5,40.6c-39.5,0-71.6-32.1-71.6-71.6c0-28.8,17.1-53.6,41.7-65
		c-2.6-11.8-3-20.4-3.1-22l-0.5-12.2c-26.5,9-48.3,28.3-60.5,53.2c-8.3,12.8-21.7,24.4-43.1,28.1c-8.5-49.3-51.4-86.9-103.1-86.9
		c-5.8,0-11.5,0.6-17.1,1.5l0.6,15.6c0,1,1.1,26,14.1,51.1c12.6,24.2,38.4,53,90.5,53c5.3,0,10.4-0.3,15.2-0.9c0,0,0,0,0-0.1
		c12.3-1.5,23-4.7,32.3-9.2c3.3,54.8,48.9,98.4,104.5,98.4c46.2,0,85.4-30.1,99.3-71.6h-11.1C681.4,259,673.5,258.3,665.9,257z
		 M381.2,157.1c24,6.9,42.8,26.1,49.3,50.3C399,200.2,386.3,175.4,381.2,157.1z M874.9,94.4h-64v33.1h64V94.4z M425.8,257
		c-11.6,24-36.1,40.6-64.5,40.6c-39.5,0-71.6-32.1-71.6-71.6c0-28.8,17.1-53.6,41.7-65c-2.6-11.8-3-20.4-3.1-22l-0.5-12.2
		c-21.4,7.3-39.8,21.3-52.5,39.5l-0.5-0.4c-41.4,51.6-93.6,39.6-120.4,28.4c-3.6-2.5-7-4.4-10-6V0h-33.1v194.5
		c-9,13.3-45.5,59.1-111.4,40.9v34.2c10.6,2.3,20.5,3.4,29.9,3.4c35.6,0,62.8-14.9,81.5-30.4V504l21-5.9c3.4-1,83.7-25.1,83.7-157.3
		c0-46.9-10.1-80.1-23.2-103.6c2.4,0.1,4.7,0.2,7.1,0.2c18.4,0,37.8-3.8,56.6-13.6c0,0.8,0,1.5,0,2.3c0,57.7,47,104.7,104.7,104.7
		c46.2,0,85.4-30.1,99.3-71.6h-11.1C441.3,259,433.3,258.3,425.8,257z M144.5,453.1V228.3c17.2,15.4,38.6,47.6,38.6,112.4
		C183.1,405.4,161.7,437.6,144.5,453.1z M1870.6,297.4c-41.5,0-76.9-18.5-105.3-55.1c-4.6-5.9-8.6-11.8-12.1-17.5
		c-7.7,1.7-16.2,2.8-25.7,2.8c-3.5,0-7.1-0.2-10.8-0.4c21.5,40.3,68.6,103.3,153.8,103.3c61.3,0,102.9-32.6,129.4-66v-62.1
		C1985.1,234.2,1946.1,297.4,1870.6,297.4z M1339.6,257c-11.6,24-36.1,40.6-64.5,40.6c-39.5,0-71.6-32.1-71.6-71.6
		c0-28.8,17.1-53.6,41.7-65c-2.6-11.7-3-20.2-3.1-21.9l-0.5-12.2c-26.9,9.1-48.9,28.8-61,54.2c-8.3,12.4-21.6,23.5-42.6,27.1
		c-8.5-49.3-51.4-86.9-103.1-86.9c-5.8,0-11.5,0.6-17.1,1.5l0.6,15.6c0,0.1,0,0.2,0,0.5c0.2,3.7,1.9,27.1,14.1,50.6
		c12.5,24.2,38.4,53,90.5,53c5.3,0,10.4-0.3,15.2-0.9c0,0,0,0,0-0.1c12.3-1.5,23-4.7,32.3-9.2c3.3,54.8,48.9,98.4,104.5,98.4
		c46.2,0,85.4-30.1,99.3-71.6h-11.1C1355.1,259,1347.2,258.3,1339.6,257z M1054.9,157.1c24,6.9,42.8,26.1,49.3,50.3
		C1072.6,200.2,1059.9,175.4,1054.9,157.1z M1806.1,138l0.2-13.9l-13.6-2.6c-8.4-1.6-16.7-2.4-24.6-2.4c-25.4,0-45.2,8.6-59.8,20.1
		V0h-33.1v137.4c-0.4,7.9-5.2,61.9-56.7,70.8c-5.5-32.1-25.6-59.2-53.2-74.3c-14.8-8.1-31.8-12.7-49.9-12.7
		c-5.8,0-11.5,0.6-17.1,1.5l0.6,15.6c0,1.1,1.1,26,14.1,51.1c12.6,24.2,38.4,53,90.6,53c5.3,0,10.4-0.3,15.2-0.9
		c10.4-1.2,19.7-3.8,28-7.3c0.1,0,0.2-0.1,0.4-0.1c1.5-0.6,2.9-1.3,4.2-2c0.3-0.1,0.5-0.2,0.8-0.4c1.3-0.6,2.6-1.3,3.8-2
		c0.3-0.2,0.6-0.3,1-0.5c1.2-0.7,2.3-1.4,3.5-2.1c0.3-0.2,0.7-0.4,1-0.6c1.1-0.7,2.2-1.5,3.2-2.2c0.3-0.2,0.7-0.5,1-0.7
		c1-0.8,2-1.5,3-2.3c0.3-0.3,0.7-0.5,1-0.8c1-0.8,1.9-1.6,2.8-2.5c0.3-0.3,0.6-0.5,0.9-0.8c0.6-0.6,1.2-1.1,1.8-1.7v109.7h33.1
		V209.5c6.8,1,13.3,1.5,19.4,1.5C1788.9,211,1805.7,163.2,1806.1,138z M1535.2,157.1c24,6.9,42.8,26.1,49.3,50.3
		C1553,200.2,1540.3,175.4,1535.2,157.1z M1770,152.2c-4.4,11.8-15.4,25.7-42.4,25.7c-3.4,0-7.1-0.2-10.9-0.6
		C1725.7,165.3,1742.2,151.6,1770,152.2z M1579.8,257c-11.6,24-36.1,40.6-64.5,40.6c-39.5,0-71.6-32.1-71.6-71.6
		c0-28.8,17.1-53.6,41.7-65c-2.6-11.7-3-20.3-3.1-21.9l-0.5-12.2c-26.9,9.1-48.9,28.8-61,54.2c-8.3,12.5-21.6,23.6-42.6,27.2
		c-8.5-49.3-51.4-86.9-103.1-86.9c-5.8,0-11.5,0.6-17.1,1.5l0.6,15.6c0,1,1.1,26,14.1,51.1c12.6,24.2,38.5,53,90.6,53
		c5.3,0,10.4-0.3,15.2-0.9c0,0,0,0,0-0.1c12.3-1.5,23-4.7,32.3-9.2c3.3,54.8,48.9,98.4,104.5,98.4c46.2,0,85.4-30.1,99.3-71.6h-11.1
		C1595.3,259,1587.4,258.3,1579.8,257z M1295,157.1c24,6.9,42.8,26.1,49.3,50.3C1312.8,200.2,1300.1,175.4,1295,157.1z M1099.4,257
		c-11.6,24-36.1,40.6-64.5,40.6c-39.4,0-71.5-32-71.6-71.3v-0.7c0.2-28.6,17.2-53.3,41.7-64.6c-2.7-12.5-3.1-21.3-3.1-21.9
		l-0.5-12.2c-14.3,4.9-27.3,12.8-38.1,22.9V0h-33.1v225.6c0,0.1,0,0.2,0,0.4c0,0.2,0,0.4,0,0.6v2.9c0,37.5-30.5,68-68,68
		c-37.5,0-68-30.5-68-68V0h-33.1v94.4h-27.6v33.1h27.6v9.9c-0.2,4.8-4.1,61.6-56.7,70.8c-5.5-32.1-25.6-59.2-53.2-74.2
		c-14.8-8.1-31.8-12.7-49.9-12.7c-5.8,0-11.5,0.6-17.1,1.5l0.6,15.6c0,1,1.1,26,14.1,51.1c12.6,24.2,38.5,53,90.5,53
		c5.3,0,10.4-0.3,15.2-0.9c10.4-1.2,19.7-3.8,27.9-7.2c0.2-0.1,0.3-0.1,0.5-0.2c1.4-0.6,2.8-1.3,4.1-1.9c0.3-0.1,0.6-0.3,0.9-0.4
		c1.3-0.6,2.5-1.3,3.7-2c0.3-0.2,0.7-0.4,1-0.6c1.2-0.7,2.3-1.4,3.4-2.1c0.4-0.2,0.7-0.5,1.1-0.7c1.1-0.7,2.1-1.4,3.2-2.2
		c0.4-0.3,0.7-0.5,1.1-0.8c1-0.7,2-1.5,3-2.3c0.4-0.3,0.7-0.6,1.1-0.9c0.9-0.8,1.9-1.6,2.8-2.4c0.3-0.3,0.7-0.6,1-0.9
		c0.6-0.5,1.1-1.1,1.7-1.6v14c0,55.7,45.3,101,101,101c35.8,0,67.3-18.7,85.3-46.9c18.8,28.4,50.9,47.1,87.4,47.1
		c46.2,0,85.4-30.1,99.3-71.6h-11.1C1114.9,259,1107,258.3,1099.4,257z M621.4,157.1c24,6.9,42.8,26.1,49.3,50.3
		C639.2,200.2,626.5,175.4,621.4,157.1z"/>
</svg>
