<?xml version="1.0" encoding="utf-8"?>
<!-- Generator: Adobe Illustrator 18.1.0, SVG Export Plug-In . SVG Version: 6.00 Build 0)  -->
<!DOCTYPE svg PUBLIC "-//W3C//DTD SVG 1.1//EN" "http://www.w3.org/Graphics/SVG/1.1/DTD/svg11.dtd">
<svg version="1.1" id="Layer_1" xmlns="http://www.w3.org/2000/svg" xmlns:xlink="http://www.w3.org/1999/xlink" x="0px" y="0px"
	 viewBox="0 0 42.6 41" enable-background="new 0 0 42.6 41" xml:space="preserve">
<path fill="#6E6F72" d="M21.3,0L0,21.3h6.2V41h1.2H11h20.5h3.9h0.9V21.3h6.2L21.3,0z M21.6,31.9H11V21.3h10.5V31.9z"/>
</svg>
