<?xml version="1.0" encoding="utf-8"?>
<!-- Generator: Adobe Illustrator 18.1.0, SVG Export Plug-In . SVG Version: 6.00 Build 0)  -->
<!DOCTYPE svg PUBLIC "-//W3C//DTD SVG 1.1//EN" "http://www.w3.org/Graphics/SVG/1.1/DTD/svg11.dtd">
<svg version="1.1" id="Layer_1" xmlns="http://www.w3.org/2000/svg" xmlns:xlink="http://www.w3.org/1999/xlink" x="0px" y="0px"
	 viewBox="0 0 165.3 84.9" enable-background="new 0 0 165.3 84.9" xml:space="preserve">
<g>
	<g>
		<path fill="#FF6B00" d="M3.5,12.7c3,3,24.1,15.6,29.6,19.5c2.1,1.5,7.8,4.9,14.7,9.6C58.5,49.3,72.6,59.4,84.2,66
			c19,10.7,36.4,15.8,70.4,10.3c7.8-1.5,10.2-5.2,10.7-8.3c0-2.1-1.7-5.7-14.7-12.4c-7.5-3.8-17.1-8.1-27.8-12
			c-13.2-4.9-27.7-9.4-37.1-13.9c-8-3.8-19.7-9.5-30.5-15.8c-7.2-4.2-14-9.1-21.3-11.7c-5.1-1.9-10.6-2.4-16.1-1.9
			C7.9,1.4,4.1,4.2,2.4,6.5C2.4,6.5,0.5,9.7,3.5,12.7z"/>
		<path fill="#86412B" d="M154.5,76.3c-34,5.5-51.4,0.4-70.4-10.3c-11.6-6.6-25.7-16.7-36.5-24.1c-6.8-4.7-12.5-8.1-14.7-9.6
			C27.6,28.3,6.5,15.7,3.5,12.7c-3-3-1.1-6.2-1.1-6.2c-0.7,1.1-1,2-1.2,2.7c-0.5,2.2-1.2,7-1.2,7s-0.6,3.2,3.1,5.8
			c3.7,2.6,34.6,21.5,44.2,27.9c9.6,6.4,30.2,21.9,45.5,28.5c15.3,6.6,39.2,8.6,58.6,4c10.3-2.5,11.8-7.2,11.8-7.2s1.4-4,1.8-5.8
			c0.1-0.4,0.3-0.9,0.3-1.5C164.7,71.1,162.3,74.8,154.5,76.3z"/>
		<path fill="none" d="M101.3,18.7c-6.8,2-16.3,4.5-22.2,4.6c0,0,0,0,0.1,0c0,0,0,0-0.1,0c0,0-0.1,0-0.1,0c1.3,0,7.2,0.2,16.7,3.1
			c6.2,1.9,13.7,5.1,22.9,9.5c0,0-1.4-11.8-6.9-19C111.7,16.9,108.2,16.7,101.3,18.7z"/>
		<path fill="none" d="M78.7,23.3c0.1,0,0.2,0,0.3,0C78.8,23.3,78.7,23.3,78.7,23.3z"/>
		<path fill="none" d="M78.7,23.3c0.1,0,0.2,0,0.3,0C78.8,23.3,78.7,23.3,78.7,23.3z"/>
		<path fill="none" d="M78.7,23.3c0.1,0,0.2,0,0.3,0C78.8,23.3,78.7,23.3,78.7,23.3z"/>
	</g>
	<path fill="#044437" d="M130.6,43.6c0.2,0.2,0.4,0.3,0.6,0.2c0.2-0.6,0.5-1.7,0.7-3.9c0.3-2.9-1.8-12.3-7.1-18.9
		c-2.1-2.6-4.9-4-7.8-5.7c-5.7-3.1-8.8-5.5-13.4-6.3c5.4,2.6,8.1,7.9,8.1,7.9c5.5,7.2,6.9,19,6.9,19S127.5,39.9,130.6,43.6z"/>
	<path fill="#044437" d="M127.8,41.1c-3.9-2.8-9.2-5.2-9.2-5.2c-9.2-4.4-16.7-7.6-22.9-9.5c-9.5-2.9-15.5-3-16.7-3.1
		c-0.1,0-0.2,0-0.3,0c0,0,0.1,0,0.3,0c0,0,0.1,0,0.1,0c-7.9-0.6-17.8,1-17.8,1S45,26.9,36,30.8c0,0,6.5,2.7,9.5,4.2
		c3,1.5,5.4,3.3,11.4,1.9c3.8-0.9,17.1-3.7,30.6-4C87.5,33,109.4,30.9,127.8,41.1z"/>
	<path fill="#062E2C" d="M79.1,23.3c5.9-0.1,15.4-2.7,22.2-4.6c7-2,10.5-1.8,10.5-1.8s-2.7-5.3-8.1-7.9c-4-0.7-9-0.2-17.6,2
		c-18.6,4.7-26.4,7.8-29.3,9.2c-2.9,1.4-1.2,1.9,0.7,2.7c1.9,0.8,3.7,1.4,3.7,1.4S71.1,22.7,79.1,23.3z"/>
	<path fill="#062E2C" d="M130.9,44.4c0,0,0.2-0.1,0.4-0.7c-0.2,0.1-0.5,0-0.6-0.2c-0.7-0.8-1.7-1.7-2.9-2.5
		C109.4,30.9,87.5,33,87.5,33c7.6-0.2,15.3,0.4,21.4,2.7c7.6,2.9,13.1,6.9,13.9,7.9c0.8,1,7.3,8.4,7.1,18.7c0,0,3.8,3,6.4,1
		C136.1,63.3,137.2,55.3,130.9,44.4z"/>
</g>
</svg>
