<?xml version="1.0" encoding="utf-8"?>
<!-- Generator: Adobe Illustrator 18.1.0, SVG Export Plug-In . SVG Version: 6.00 Build 0)  -->
<!DOCTYPE svg PUBLIC "-//W3C//DTD SVG 1.1//EN" "http://www.w3.org/Graphics/SVG/1.1/DTD/svg11.dtd">
<svg version="1.1" id="Layer_1" xmlns="http://www.w3.org/2000/svg" xmlns:xlink="http://www.w3.org/1999/xlink" x="0px" y="0px"
	 viewBox="0 0 180.9 37.4" enable-background="new 0 0 180.9 37.4" xml:space="preserve">
<g>
	<g>
		<path fill="#A93439" d="M67.1,22.3c0,0-21.4-0.8-35-1.3c-13.6-0.5-30-1-31.3,1.3L0,32.1c0,0,75.1,4.9,94.2,5.2
			c19,0.3,73.4,0.1,86.7-5.9c0,0-0.7-6.7,0-9.9c0,0,2.9-1.9-29-0.9C120,21.6,90.7,23.8,67.1,22.3z"/>
		<path fill="#FF6B00" d="M151.9,20.6c-31.9,1-61.1,3.2-84.8,1.7c0,0-21.4-0.8-35-1.3c-13.6-0.5-30-1-31.3,1.3
			c0,0,12.5,1.6,41.3,2.2c28.7,0.6,70.8,2.9,98.4,1.6c27.6-1.3,33.1-2.6,40.4-4.7C180.8,21.5,183.7,19.7,151.9,20.6z"/>
		<path fill="#86412B" d="M42.1,24.6c-28.7-0.6-41.3-2.2-41.3-2.2L0,32.1c0,0,75.1,4.9,94.2,5.2c19,0.3,73.4,0.1,86.7-5.9
			c0,0-0.7-6.7,0-9.9c-7.3,2.1-12.8,3.4-40.4,4.7C112.9,27.4,70.8,25.2,42.1,24.6z"/>
	</g>
	<path fill="#062E2C" d="M110.7,9.4c11-3.9,22.6-8.4,29.5-9.1c-0.4-0.1-0.8-0.1-1.2-0.2c-4.5-0.5-14.2,1.4-24.3,5.1
		c-10.1,3.6-21.2,9-34.2,11.1c-9.8,1.5-15.8,3.8-18.2,4.6c0,0,9.6-2.4,23.9-4.6C92.1,15.3,101.5,12.6,110.7,9.4z"/>
	<path fill="#044437" d="M151.1,5.3c-1.4-1.6-6.7-4.2-11-5c-6.9,0.7-18.4,5.3-29.5,9.1c-9.2,3.2-18.6,5.9-24.5,6.8
		c-14.4,2.2-23.9,4.6-23.9,4.6s-9.8,2.9-10.7,3.2c0,0,4.6,0.7,7.9,0.2c0,0,6.6-1.1,13.2-1.3c6.6-0.2,22.2-1.6,32.3-3.8
		c10.1-2.2,20-5.6,39.6-13.9C149.2,3.3,151.1,5.3,151.1,5.3z"/>
	<path fill="#062E2C" d="M150.7,8c-0.5-1.3,1.9-1,0.4-2.8c0,0-1.9-1.9-6.5,0c0,0,1.9,1.1,4.2,17c0,0,1.8,0.6,5.1,0
		C153.9,22.2,152.9,13.1,150.7,8z"/>
</g>
</svg>
